{
  "success": true,
  "data": [
    {
      "id": "2",
      "title": "Global Markets Rally Amid Economic Recovery Signs",
      "description": "Stock markets worldwide show positive momentum as economic indicators point toward recovery.",
      "content": "Global financial markets are experiencing significant gains as investors respond positively to emerging economic recovery signals. Major stock indices across continents have posted substantial increases.",
      "category": { "id": 2, "slug": "business", "name": "Business" },
      "source": { "id": 2, "slug": "reuters", "name": "Reuters" },
      "author": { "id": 1, "slug": "sarah-johnson", "name": "Sarah Johnson" },
      "publishedAt": "2024-12-27T09:15:00Z",
      "imageUrl": "https://images.pexels.com/photos/590022/pexels-photo-590022.jpeg?auto=compress&cs=tinysrgb&w=800",
      "url": "#"
    },
    {
      "id": "3",
      "title": "Climate Summit Reaches Historic Agreement on Emissions",
      "description": "World leaders unite to establish comprehensive climate action framework.",
      "content": "In a landmark decision at the global climate summit, world leaders have reached a historic agreement on carbon emissions reduction that sets ambitious targets for the coming decades.",
      "category": { "id": 2, "slug": "business", "name": "Business" },
      "source": { "id": 2, "slug": "reuters", "name": "Reuters" },
      "author": { "id": 1, "slug": "sarah-johnson", "name": "Sarah Johnson" },
      "publishedAt": "2024-12-27T08:45:00Z",
      "imageUrl": "https://images.pexels.com/photos/2990650/pexels-photo-2990650.jpeg?auto=compress&cs=tinysrgb&w=800",
      "url": "#"
    }
  ],

  "first_page_url": "http://localhost:5173/api/posts?page=1",
  "from": 1,
  "last_page": 5,
  "last_page_url": "http://localhost:5173/api/posts?page=5",
  "links": [
    {
      "url": null,
      "label": "&laquo; Previous",
      "active": false
    },
    {
      "url": "http://localhost:5173/api/posts?page=1",
      "label": "1",
      "active": true
    },
    {
      "url": "http://localhost:5173/api/posts?page=2",
      "label": "2",
      "active": false
    },
    {
      "url": "http://localhost:5173/api/posts?page=3",
      "label": "3",
      "active": false
    },
    {
      "url": "http://localhost:5173/api/posts?page=2",
      "label": "Next &raquo;",
      "active": false
    }
  ],
  "next_page_url": "http://localhost:5173/api/posts?page=2",
  "path": "http://localhost:5173/api/posts",
  "per_page": 15,
  "prev_page_url": null,
  "to": 15,
  "total": 67,
  "filters": {
    "category": { "id": 2, "slug": "business", "name": "Business" },
    "source": null,
    "author": null,
    "dateFrom": null,
    "dateTo": null
  }
}
