{
  "success": true,
  "data": [
    {
      "id": "1",
      "title": "Revolutionary AI Technology Transforms Healthcare Industry",
      "description": "Groundbreaking artificial intelligence solutions are revolutionizing patient care and medical diagnosis.",
      "content": "The healthcare industry is experiencing a profound transformation through the integration of artificial intelligence technologies. These cutting-edge solutions are enabling healthcare providers to deliver more accurate diagnoses, personalized treatment plans, and improved patient outcomes.",
      "category": { "id": 2, "slug": "business", "name": "Business" },
      "source": { "id": 2, "slug": "reuters", "name": "Reuters" },
      "author": { "id": 1, "slug": "sarah-johnson", "name": "Sarah Johnson" },
      "publishedAt": "2024-12-27T10:30:00Z",
      "imageUrl": "https://images.pexels.com/photos/3862130/pexels-photo-3862130.jpeg?auto=compress&cs=tinysrgb&w=800",
      "url": "#"
    }
  ],

  "first_page_url": "http://localhost:5173/api/search.json?page=1",
  "from": 1,
  "last_page": 5,
  "last_page_url": "http://localhost:5173/api/search.json?page=5",
  "links": [
    {
      "url": null,
      "label": "&laquo; Previous",
      "active": false
    },
    {
      "url": "http://localhost:5173/api/search.json?page=1",
      "label": "1",
      "active": true
    },
    {
      "url": "http://localhost:5173/api/search.json?page=2",
      "label": "2",
      "active": false
    },
    {
      "url": "http://localhost:5173/api/search.json?page=3",
      "label": "3",
      "active": false
    },
    {
      "url": "http://localhost:5173/api/search.json?page=2",
      "label": "Next &raquo;",
      "active": false
    }
  ],
  "next_page_url": "http://localhost:5173/api/search.json?page=2",
  "path": "http://localhost:5173/api/search.json",
  "per_page": 15,
  "prev_page_url": null,
  "to": 15,
  "total": 67,
  "query": {
    "keyword": "AI",
    "category": null,
    "source": null,
    "author": null,
    "dateFrom": null,
    "dateTo": null
  }
}
